x;y
0.0;0.4
0.5;0.4
1.0;0.4
1.5;0.4
2.0;0.4
2.5;0.4
3.0;0.4
3.5;0.4
4.0;0.4
4.5;0.4
5.0;0.4
5.5;0.4
6.0;0.4
6.5;0.4
7.0;0.4
7.5;0.4
8.0;0.4
8.5;0.4
9.0;0.4
9.5;0.4
10.0;0.4
10.5;0.4
11.0;0.4
11.5;0.4
12.0;0.4
12.5;0.4
13.0;0.4
13.5;0.4
14.0;0.4
14.5;0.4
15.0;0.4
15.5;0.4
16.0;0.4
16.5;0.4
17.0;0.4
17.5;0.4
18.0;0.4
18.5;0.4
19.0;0.4
19.5;0.4
20.0;0.4
20.5;0.4
21.0;0.4
21.5;0.4
22.0;0.4
22.5;0.4
23.0;0.4
23.5;0.4
24.0;0.4
24.5;0.4
25.0;0.4
25.5;0.4
26.0;0.4
26.5;0.4
27.0;0.4
27.5;0.4
28.0;0.4
28.5;0.4
29.0;0.4
29.5;0.4
30.0;0.4
30.5;0.4
31.0;0.4
31.5;0.4
32.0;0.4
32.5;0.4
33.0;0.4
33.5;0.4
34.0;0.4
34.5;0.4
35.0;0.4
0.0;0.9
0.5;0.9
1.0;0.9
1.5;0.9
2.0;0.9
2.5;0.9
3.0;0.9
3.5;0.9
4.0;0.9
4.5;0.9
5.0;0.9
5.5;0.9
6.0;0.9
6.5;0.9
7.0;0.9
7.5;0.9
8.0;0.9
8.5;0.9
9.0;0.9
9.5;0.9
10.0;0.9
10.5;0.9
11.0;0.9
11.5;0.9
12.0;0.9
12.5;0.9
13.0;0.9
13.5;0.9
14.0;0.9
14.5;0.9
15.0;0.9
15.5;0.9
16.0;0.9
16.5;0.9
17.0;0.9
17.5;0.9
18.0;0.9
18.5;0.9
19.0;0.9
19.5;0.9
20.0;0.9
20.5;0.9
21.0;0.9
21.5;0.9
22.0;0.9
22.5;0.9
23.0;0.9
23.5;0.9
24.0;0.9
24.5;0.9
25.0;0.9
25.5;0.9
26.0;0.9
26.5;0.9
27.0;0.9
27.5;0.9
28.0;0.9
28.5;0.9
29.0;0.9
29.5;0.9
30.0;0.9
30.5;0.9
31.0;0.9
31.5;0.9
32.0;0.9
32.5;0.9
33.0;0.9
33.5;0.9
34.0;0.9
34.5;0.9
35.0;0.9
0.0;1.4
0.5;1.4
1.0;1.4
1.5;1.4
2.0;1.4
2.5;1.4
3.0;1.4
3.5;1.4
4.0;1.4
4.5;1.4
5.0;1.4
5.5;1.4
6.0;1.4
6.5;1.4
7.0;1.4
7.5;1.4
8.0;1.4
8.5;1.4
9.0;1.4
9.5;1.4
10.0;1.4
10.5;1.4
11.0;1.4
11.5;1.4
12.0;1.4
12.5;1.4
13.0;1.4
13.5;1.4
14.0;1.4
14.5;1.4
15.0;1.4
15.5;1.4
16.0;1.4
16.5;1.4
17.0;1.4
17.5;1.4
18.0;1.4
18.5;1.4
19.0;1.4
19.5;1.4
20.0;1.4
20.5;1.4
21.0;1.4
21.5;1.4
22.0;1.4
22.5;1.4
23.0;1.4
23.5;1.4
24.0;1.4
24.5;1.4
25.0;1.4
25.5;1.4
26.0;1.4
26.5;1.4
27.0;1.4
27.5;1.4
28.0;1.4
28.5;1.4
29.0;1.4
29.5;1.4
30.0;1.4
30.5;1.4
31.0;1.4
31.5;1.4
32.0;1.4
32.5;1.4
33.0;1.4
33.5;1.4
34.0;1.4
34.5;1.4
35.0;1.4
1.0;3.1
1.5;3.1
2.0;3.1
2.5;3.1
3.0;3.1
3.5;3.1
4.0;3.1
4.5;3.1
5.0;3.1
5.5;3.1
6.0;3.1
6.5;3.1
7.0;3.1
7.5;3.1
8.0;3.1
8.5;3.1
9.0;3.1
10.0;3.1
11.0;3.1
12.0;3.1
13.0;3.1
14.0;3.1
15.0;3.1
16.0;3.1
17.0;3.1
18.0;3.1
1.0;3.6
1.5;3.6
2.0;3.6
2.5;3.6
3.0;3.6
3.5;3.6
4.0;3.6
4.5;3.6
5.0;3.6
5.5;3.6
6.0;3.6
6.5;3.6
7.0;3.6
7.5;3.6
8.0;3.6
8.5;3.6
9.0;3.6
18.0;4.1
8.0;4.4
8.5;4.4
9.0;4.4
8.0;4.9
8.5;4.9
9.0;4.9
18.0;5.1
8.0;5.4
8.5;5.4
9.0;5.4
8.0;5.9
8.5;5.9
9.0;5.9
18.0;6.1
1.0;6.4
1.5;6.4
2.0;6.4
2.5;6.4
3.0;6.4
3.5;6.4
4.0;6.4
4.5;6.4
5.0;6.4
5.5;6.4
6.0;6.4
6.5;6.4
7.0;6.4
7.5;6.4
8.0;6.4
1.0;6.9
1.5;6.9
2.0;6.9
2.5;6.9
3.0;6.9
3.5;6.9
4.0;6.9
4.5;6.9
5.0;6.9
5.5;6.9
6.0;6.9
6.5;6.9
7.0;6.9
7.5;6.9
13.0;7.1
14.0;7.1
15.0;7.1
16.0;7.1
17.0;7.1
18.0;7.1
